// Jest Snapshot v1, https://goo.gl/fbAQLP

exports[`Writes error message to res on error 1`] = `
Array [
  Array [
    "Something has gone wrong. That's all the information I can give you, sorry.",
  ],
]
`;
